{
  "type": "minecraft:crafting_shaped",
  "pattern": [
    "012",
    "3 5"
  ],
  "key": {
    "0": {
      "item": "minecraft:bone"
    },
    "1": {
      "item": "minecraft:bone"
    },
    "2": {
      "item": "minecraft:bone"
    },
    "3": {
      "item": "minecraft:bone"
    },
    "5": {
      "item": "minecraft:bone"
    }
  },
  "result": {
    "item": "hgs_colab:bone_armor_helmet",
    "count": 1
  }
}