{
  "type": "minecraft:crafting_shaped",
  "pattern": [
    " 1 ",
    "3 5",
    " 7 "
  ],
  "key": {
    "1": {
      "item": "minecraft:blaze_rod"
    },
    "3": {
      "item": "minecraft:stone_button"
    },
    "5": {
      "item": "minecraft:diorite"
    },
    "7": {
      "item": "minecraft:blaze_rod"
    }
  },
  "result": {
    "item": "hgs_colab:pistolplow",
    "count": 1
  }
}