{
  "type": "minecraft:crafting_shaped",
  "pattern": [
    "0 2",
    "3 5"
  ],
  "key": {
    "0": {
      "item": "minecraft:gold_block"
    },
    "2": {
      "item": "minecraft:gold_block"
    },
    "3": {
      "item": "minecraft:iron_block"
    },
    "5": {
      "item": "minecraft:iron_block"
    }
  },
  "result": {
    "item": "hgs_colab:radiation_armor_boots",
    "count": 1
  }
}